<svg width="16" height="15" viewBox="0 0 16 15" fill="none" xmlns="http://www.w3.org/2000/svg">
<path d="M2.87267 13.0863C2.81009 13.0588 2.76489 13.0279 2.8379 12.9661C2.88311 12.9317 2.93178 12.9008 2.98046 12.8699C3.43596 12.5778 3.86363 12.2583 4.14528 11.7877C4.38171 11.396 4.34347 11.1658 4.04792 10.8772C2.3998 9.24871 1.67657 7.30071 2.03818 4.99883C2.24333 3.70016 2.84486 2.5767 3.72107 1.60098C4.24959 1.01005 4.87893 0.532496 5.56739 0.133962C5.60911 0.109913 5.66822 0.103041 5.67518 0.0411998C5.66127 0.00684341 5.63693 0.0171503 5.61607 0.0171503C4.4443 0.0171503 3.27254 -0.00689915 2.10425 0.0240216C0.984637 0.058378 0.0180167 0.913852 0.0214937 2.14038C0.0284478 5.72375 0.0214937 9.30712 0.0214937 12.8939C0.0214937 14.0071 0.880325 14.9381 2.00341 14.9794C2.95265 15.0172 3.90188 14.9862 4.85459 14.9828C4.92413 14.9862 4.99368 14.9897 5.06322 14.9897H10.0841C11.3358 14.9897 12.5876 14.9965 13.8393 14.9897C15.0006 14.9897 15.9429 14.062 15.9429 12.918V12.8974V10.8875C15.9429 10.8394 15.9603 10.7879 15.929 10.7363C15.8664 10.7398 15.8421 10.7913 15.8073 10.8257C15.1328 11.4956 14.3365 12.035 13.4638 12.4164C11.3254 13.3474 9.14875 13.4127 6.94082 12.6637C6.74959 12.595 6.54096 12.5882 6.34277 12.6363C6.0507 12.7084 5.7621 12.7943 5.47351 12.8802C4.62511 13.1413 3.75932 13.2581 2.87267 13.0863ZM5.39354 7.29727C5.45265 7.22169 5.48394 7.17702 5.51871 7.13236C5.9742 6.56204 6.4297 5.99173 6.88519 5.41797C7.01732 5.25306 7.14945 5.08472 7.2329 4.88545C7.33025 4.6587 7.22594 4.44569 6.9895 4.36323C6.88519 4.33231 6.77392 4.31857 6.66266 4.32544C6.04374 4.32201 5.42135 4.32201 4.80244 4.32544C4.71551 4.32544 4.62858 4.33575 4.54514 4.35636C4.35042 4.40446 4.2322 4.60029 4.28088 4.79612C4.31565 4.92668 4.41996 5.02975 4.55209 5.06067C4.63554 5.08128 4.72247 5.09159 4.80939 5.08815C5.18491 5.09159 5.56391 5.08815 5.93943 5.09159C5.98116 5.09159 6.03331 5.0641 6.06461 5.12595C6.03331 5.16717 6.00202 5.2084 5.97073 5.24619C5.43178 5.91958 4.89632 6.5964 4.35738 7.26978C4.22525 7.43813 4.15571 7.62366 4.25306 7.82979C4.35042 8.03593 4.54861 8.07372 4.75028 8.08747C4.91023 8.09777 5.07365 8.0909 5.23707 8.0909C5.80035 8.0909 6.36016 8.09434 6.92344 8.08747C7.22246 8.08403 7.38241 7.90538 7.35111 7.63053C7.32678 7.41408 7.17726 7.30071 6.8991 7.29727C6.40883 7.29383 5.91857 7.29727 5.39354 7.29727ZM9.42691 5.49012C8.99228 5.11564 8.51245 5.09159 8.04305 5.36644C7.47281 5.69626 7.26419 6.23566 7.33373 6.86094C7.39979 7.445 7.6571 7.92256 8.27601 8.11839C8.66196 8.24207 9.0201 8.19741 9.33651 7.94317C9.41996 7.87789 9.4443 7.89164 9.50341 7.96378C9.61815 8.10808 9.81634 8.16305 9.9902 8.09777C10.164 8.04624 10.2788 7.8882 10.2788 7.70955C10.2823 7.02242 10.2857 6.33529 10.2788 5.64816C10.2753 5.37331 10.0145 5.19809 9.74333 5.25306C9.59381 5.28399 9.51036 5.38362 9.42691 5.49012ZM11.8365 6.76475C11.8226 7.62366 12.5424 8.27299 13.4464 8.18366C14.2774 8.10121 14.8163 7.48623 14.7885 6.61701C14.7607 5.7581 14.114 5.17061 13.2273 5.19809C12.3963 5.22214 11.8087 5.88179 11.8365 6.76475ZM11.5305 6.08105C11.5305 5.54166 11.534 5.0057 11.5305 4.4663C11.5305 4.19145 11.3532 4.01967 11.0889 4.02311C10.8316 4.02654 10.6613 4.19832 10.6578 4.46287C10.6543 4.62434 10.6578 4.78238 10.6578 4.94386V7.67519C10.6578 7.8882 10.7899 8.07372 10.9638 8.11839C11.2037 8.18367 11.4506 8.0428 11.5131 7.80574C11.5236 7.76452 11.5305 7.72329 11.5271 7.67863C11.534 7.1461 11.5305 6.61358 11.5305 6.08105Z" fill="#27AE60"/>
</svg>
