<svg width="14" height="14" viewBox="0 0 14 14" fill="none" xmlns="http://www.w3.org/2000/svg">
<g clip-path="url(#clip0_249_98)">
<path d="M12.7969 3.0625H11.375V11.375C11.375 11.6071 11.4672 11.8296 11.6313 11.9937C11.7954 12.1578 12.0179 12.25 12.25 12.25C12.4821 12.25 12.7046 12.1578 12.8687 11.9937C13.0328 11.8296 13.125 11.6071 13.125 11.375V3.39062C13.125 3.3036 13.0904 3.22014 13.0289 3.15861C12.9674 3.09707 12.8839 3.0625 12.7969 3.0625Z" fill="#123D69"/>
<path d="M11.7893 13.0635C11.4192 12.962 11.0926 12.7418 10.8597 12.4368C10.6268 12.1318 10.5005 11.7588 10.5 11.375V1.20313C10.5 1.1161 10.4654 1.03264 10.4039 0.971106C10.3424 0.90957 10.2589 0.875 10.1719 0.875H1.20313C1.1161 0.875 1.03264 0.90957 0.971106 0.971106C0.90957 1.03264 0.875 1.1161 0.875 1.20313V11.5938C0.875 11.9999 1.03633 12.3893 1.32349 12.6765C1.61066 12.9637 2.00014 13.125 2.40625 13.125H11.7811C11.7888 13.1253 11.7964 13.1227 11.8023 13.1177C11.8083 13.1127 11.8121 13.1057 11.8132 13.098C11.8142 13.0903 11.8123 13.0825 11.8079 13.0761C11.8035 13.0697 11.7968 13.0652 11.7893 13.0635ZM2.625 5.6875V3.0625H5.25V5.6875H2.625ZM8.75 10.9375H2.625V10.0625H8.75V10.9375ZM8.75 9.1875H2.625V8.3125H8.75V9.1875ZM8.75 7.4375H2.625V6.5625H8.75V7.4375ZM8.75 5.6875H6.125V4.8125H8.75V5.6875ZM8.75 3.9375H6.125V3.0625H8.75V3.9375Z" fill="#123D69"/>
</g>
<defs>
<clipPath id="clip0_249_98">
<rect width="14" height="14" fill="white"/>
</clipPath>
</defs>
</svg>
